module github.com/tillson/git-hound

go 1.12

require (
	github.com/Microsoft/go-winio v0.5.2 // indirect
	github.com/ProtonMail/go-crypto v0.0.0-20220517143526-88bb52951d5b // indirect
	github.com/boombuler/barcode v1.0.1 // indirect
	github.com/emirpasic/gods v1.18.1 // indirect
	github.com/fatih/color v1.13.0
	github.com/go-git/go-git/v5 v5.4.2
	github.com/google/go-github v17.0.0+incompatible
	github.com/google/go-querystring v1.1.0 // indirect
	github.com/imdario/mergo v0.3.13 // indirect
	github.com/kevinburke/ssh_config v1.2.0 // indirect
	github.com/pelletier/go-toml/v2 v2.0.2 // indirect
	github.com/pquerna/otp v1.3.0
	github.com/sergi/go-diff v1.2.0 // indirect
	github.com/spf13/cobra v1.4.0
	github.com/spf13/viper v1.12.0
	github.com/subosito/gotenv v1.4.0 // indirect
	github.com/waigani/diffparser v0.0.0-20190828052634-7391f219313d
	github.com/xanzy/ssh-agent v0.3.1 // indirect
	golang.org/x/crypto v0.0.0-20220525230936-793ad666bf5e
	golang.org/x/net v0.0.0-20220617184016-355a448f1bc9 // indirect
	golang.org/x/sys v0.0.0-20220615213510-4f61da869c0c // indirect
	golang.org/x/term v0.0.0-20220526004731-065cf7ba2467 // indirect
	gopkg.in/ini.v1 v1.66.6 // indirect
)
